^C:\USERS\NASHANDRAPC\SOURCE\REPOS\BITWISESHIFTS\BITWISESHIFTS\STDAFX.CPP
C:\USERS\NASHANDRAPC\SOURCE\REPOS\BITWISESHIFTS\BITWISESHIFTS\DEBUG\BITWISESHIFTS.PCH
C:\USERS\NASHANDRAPC\SOURCE\REPOS\BITWISESHIFTS\BITWISESHIFTS\DEBUG\VC141.PDB
C:\USERS\NASHANDRAPC\SOURCE\REPOS\BITWISESHIFTS\BITWISESHIFTS\DEBUG\VC141.IDB
C:\USERS\NASHANDRAPC\SOURCE\REPOS\BITWISESHIFTS\BITWISESHIFTS\DEBUG\STDAFX.OBJ
^C:\USERS\NASHANDRAPC\SOURCE\REPOS\BITWISESHIFTS\BITWISESHIFTS\BITWISESHIFTS.CPP
C:\USERS\NASHANDRAPC\SOURCE\REPOS\BITWISESHIFTS\BITWISESHIFTS\DEBUG\VC141.PDB
C:\USERS\NASHANDRAPC\SOURCE\REPOS\BITWISESHIFTS\BITWISESHIFTS\DEBUG\VC141.IDB
C:\USERS\NASHANDRAPC\SOURCE\REPOS\BITWISESHIFTS\BITWISESHIFTS\DEBUG\BITWISESHIFTS.OBJ
